[
    {
        "name": "142.93.216.0:8091",
        "value": true
    },
    {
        "name": "139.59.32.196/as",
        "value": false
    },
    {
        "name": "192.168.1.249/elec",
        "value": false
    },
    {
        "name": "183.82.250.137:4448/oldklaus",
        "value": false
    }
]
