{
    "items": [
        {
            "id": 39,
            "sku": "51G053",
            "name": "Brushless Oscillating Multi-Tool",
            "attribute_set_id": 37,
            "price": 1000,
            "status": 1,
            "visibility": 4,
            "type_id": "simple",
            "created_at": "2017-07-28 08:42:29",
            "updated_at": "2017-10-30 05:37:47",
            "weight": 1,
            "extension_attributes": [],
            "product_links": [],
            "tier_prices": [],
            "custom_attributes": [
                {
                    "attribute_code": "description",
                    "value": "<p>Verto 500 W Angle Grinder (ref. No. 51g053) is a  Sturdy and Powerful Tool with Cutting Disc Diameter 115 Mm, Designed for Cutting and Grinding of Materials Like Steel, Cast Iron. It has Sturdy, Lengthened and Resistant to Damages Body and Efficient 500 W Motor Suitable for Doing Most of Workshop Tasks. Body Shape Allows to Firmly Grip The Grinder During Operation. Maximum Rotary Speed 12000 Rpm. Tool is Delivered with Steel Disc Guard, Special Key and Additional Handle. Compliance with European Safety Standards is Confirmed with Ce Certificate. Verto Brand Offers Power Tool And.</p>"
                },
                {
                    "attribute_code": "short_description",
                    "value": "Angle Grinder, 500W, Disc 115x22.2 mm, Speed 12,000 min⁻¹, Spindle Thread M14, (L x H) 280x75 mm, Weight 1.64 kg"
                },
                {
                    "attribute_code": "manufacturer",
                    "value": "344"
                },
                {
                    "attribute_code": "image",
                    "value": "/1/4/149406_kr604cres_1_2.jpg"
                },
                {
                    "attribute_code": "small_image",
                    "value": "/1/4/149406_kr604cres_1_2.jpg"
                },
                {
                    "attribute_code": "thumbnail",
                    "value": "/1/4/149406_kr604cres_1_2.jpg"
                },
                {
                    "attribute_code": "news_from_date",
                    "value": "2017-11-02 00:00:00"
                },
                {
                    "attribute_code": "news_to_date",
                    "value": "2018-11-30 00:00:00"
                },
                {
                    "attribute_code": "options_container",
                    "value": "container2"
                },
                {
                    "attribute_code": "required_options",
                    "value": "0"
                },
                {
                    "attribute_code": "has_options",
                    "value": "0"
                },
                {
                    "attribute_code": "url_key",
                    "value": "51g053"
                },
                {
                    "attribute_code": "msrp_display_actual_price_type",
                    "value": "0"
                },
                {
                    "attribute_code": "tax_class_id",
                    "value": "2"
                },
                {
                    "attribute_code": "gift_message_available",
                    "value": "2"
                },
                {
                    "attribute_code": "standards_met",
                    "value": "European Safety Standards;CE Certified"
                },
                {
                    "attribute_code": "includes",
                    "value": "Steel Disc Guard;Special Key;Additional Handle"
                },
                {
                    "attribute_code": "mfr_part_no",
                    "value": "51G053"
                },
                {
                    "attribute_code": "brand",
                    "value": "4"
                },
                {
                    "attribute_code": "grsns_product_type",
                    "value": "25"
                },
                {
                    "attribute_code": "grsns_voltage",
                    "value": "59"
                },
                {
                    "attribute_code": "frequency",
                    "value": "70"
                },
                {
                    "attribute_code": "power_rating",
                    "value": "73"
                },
                {
                    "attribute_code": "dimension",
                    "value": "177"
                },
                {
                    "attribute_code": "grsns_weight",
                    "value": "1.64 kg"
                },
                {
                    "attribute_code": "maximum_speed",
                    "value": "12000 Min⁻¹"
                },
                {
                    "attribute_code": "spindle_thread_size",
                    "value": "M14"
                },
                {
                    "attribute_code": "cutting_disc_size",
                    "value": "115 x 22.2 mm"
                },
                {
                    "attribute_code": "application",
                    "value": "Workshop Tasks"
                }
            ]
        },
        {
            "id": 40,
            "sku": "51G091",
            "name": "VERTO Angle Grinder 230 V 11000 Min⁻¹ Speed",
            "attribute_set_id": 37,
            "price": 0,
            "status": 1,
            "visibility": 1,
            "type_id": "simple",
            "created_at": "2017-07-28 08:42:29",
            "updated_at": "2017-10-30 05:37:47",
            "weight": 1,
            "extension_attributes": [],
            "product_links": [],
            "tier_prices": [],
            "custom_attributes": [
                {
                    "attribute_code": "description",
                    "value": "<p>Verto 850 W Angle Grinder is a  Sturdy and Comfortable Tool with Cutting Disc Diameter 125 Mm, Designed for Cutting and Grinding of Materials Like Steel, Cast Iron. It has Sturdy Body Resistant to Damages and 850 W Efficient Motor Suitable for Doing Most of Workshop Tasks. Maximum Rotary Speed 12 000 Rpm. Tool is Delivered with Steel Disc Guard, Special Key and Additional Handle. Accordance with European Safety Standards is Confirmed with Ce Certificate. Verto Brand Offers Power Tool and Accessories Assortment for All Diy Enthusiasts.</p>"
                },
                {
                    "attribute_code": "short_description",
                    "value": "Angle Grinder 850W, Disc 125x22.2 mm, Speed 11,000 min⁻¹, Spindle Thread M14, color box"
                },
                {
                    "attribute_code": "manufacturer",
                    "value": "344"
                },
                {
                    "attribute_code": "image",
                    "value": "/5/1/51g091.png"
                },
                {
                    "attribute_code": "small_image",
                    "value": "/5/1/51g091.png"
                },
                {
                    "attribute_code": "thumbnail",
                    "value": "/5/1/51g091.png"
                },
                {
                    "attribute_code": "options_container",
                    "value": "container2"
                },
                {
                    "attribute_code": "required_options",
                    "value": "0"
                },
                {
                    "attribute_code": "has_options",
                    "value": "0"
                },
                {
                    "attribute_code": "url_key",
                    "value": "51g091"
                },
                {
                    "attribute_code": "msrp_display_actual_price_type",
                    "value": "0"
                },
                {
                    "attribute_code": "tax_class_id",
                    "value": "2"
                },
                {
                    "attribute_code": "gift_message_available",
                    "value": "2"
                },
                {
                    "attribute_code": "standards_met",
                    "value": "European Safety Standards;CE Certified"
                },
                {
                    "attribute_code": "includes",
                    "value": "Steel Disc Guard;Special Key;Additional Handle"
                },
                {
                    "attribute_code": "mfr_part_no",
                    "value": "51G091"
                },
                {
                    "attribute_code": "brand",
                    "value": "4"
                },
                {
                    "attribute_code": "grsns_product_type",
                    "value": "25"
                },
                {
                    "attribute_code": "grsns_voltage",
                    "value": "59"
                },
                {
                    "attribute_code": "frequency",
                    "value": "70"
                },
                {
                    "attribute_code": "power_rating",
                    "value": "97"
                },
                {
                    "attribute_code": "dimension",
                    "value": "178"
                },
                {
                    "attribute_code": "grsns_weight",
                    "value": "1.8 kg"
                },
                {
                    "attribute_code": "maximum_speed",
                    "value": "11000 Min⁻¹"
                },
                {
                    "attribute_code": "spindle_thread_size",
                    "value": "M14"
                },
                {
                    "attribute_code": "cutting_disc_size",
                    "value": "125 x 22.2 mm"
                },
                {
                    "attribute_code": "application",
                    "value": "Workshop Tasks"
                }
            ]
        },
        {
            "id": 41,
            "sku": "51G096",
            "name": "VERTO Angle Grinder 230 V 10500 Min⁻¹ Speed",
            "attribute_set_id": 37,
            "price": 0,
            "status": 1,
            "visibility": 1,
            "type_id": "simple",
            "created_at": "2017-07-28 08:42:29",
            "updated_at": "2017-10-30 05:37:47",
            "weight": 1,
            "extension_attributes": [],
            "product_links": [],
            "tier_prices": [],
            "custom_attributes": [
                {
                    "attribute_code": "description",
                    "value": "<p>Verto 1050 W Angle Grinder (ref. No. 51g096) is a  Sturdy and Powerful Tool with Cutting Disc Diameter 125 Mm, Designed for Cutting and Grinding of Materials Like Steel, Cast Iron. It has Robust, Lengthened and Resistant to Damages Body and Powerful 1150 W Motor Suitable for Doing Most of Workshop Tasks. Body Shape Allows to Firmly Grip The Grinder During Operation. Maximum Rotary Speed 10500 Rpm. Tool is Delivered with Steel Disc Guard, Special Key and Additional Handle. Compliance with European Safety Standards is Confirmed with Ce Certificate. Verto Brand Offers Power Tool and Accessories Assortment for All Diy Enthusiasts.</p>"
                },
                {
                    "attribute_code": "short_description",
                    "value": "Angle Grinder, 1050W, Disc 125x22.2 mm, Speed 10,500 min⁻¹, Spindle Thread M14, (L x H) 395x105 mm, Weight 2.3 kg"
                },
                {
                    "attribute_code": "manufacturer",
                    "value": "344"
                },
                {
                    "attribute_code": "image",
                    "value": "/5/1/51g096.png"
                },
                {
                    "attribute_code": "small_image",
                    "value": "/5/1/51g096.png"
                },
                {
                    "attribute_code": "thumbnail",
                    "value": "/5/1/51g096.png"
                },
                {
                    "attribute_code": "options_container",
                    "value": "container2"
                },
                {
                    "attribute_code": "required_options",
                    "value": "0"
                },
                {
                    "attribute_code": "has_options",
                    "value": "0"
                },
                {
                    "attribute_code": "url_key",
                    "value": "51g096"
                },
                {
                    "attribute_code": "msrp_display_actual_price_type",
                    "value": "0"
                },
                {
                    "attribute_code": "tax_class_id",
                    "value": "2"
                },
                {
                    "attribute_code": "gift_message_available",
                    "value": "2"
                },
                {
                    "attribute_code": "standards_met",
                    "value": "European Safety Standards;CE Certified"
                },
                {
                    "attribute_code": "includes",
                    "value": "Steel Disc Guard;Special Key;Additional Handle"
                },
                {
                    "attribute_code": "mfr_part_no",
                    "value": "51G096"
                },
                {
                    "attribute_code": "brand",
                    "value": "4"
                },
                {
                    "attribute_code": "grsns_product_type",
                    "value": "25"
                },
                {
                    "attribute_code": "grsns_voltage",
                    "value": "59"
                },
                {
                    "attribute_code": "frequency",
                    "value": "70"
                },
                {
                    "attribute_code": "power_rating",
                    "value": "91"
                },
                {
                    "attribute_code": "dimension",
                    "value": "181"
                },
                {
                    "attribute_code": "grsns_weight",
                    "value": "2.3 kg"
                },
                {
                    "attribute_code": "maximum_speed",
                    "value": "10500 Min⁻¹"
                },
                {
                    "attribute_code": "spindle_thread_size",
                    "value": "M14"
                },
                {
                    "attribute_code": "cutting_disc_size",
                    "value": "125 x 22.2 mm"
                },
                {
                    "attribute_code": "application",
                    "value": "Workshop Tasks"
                }
            ]
        },
        {
            "id": 42,
            "sku": "51G097",
            "name": "Angle Grinder",
            "attribute_set_id": 37,
            "price": 10,
            "status": 1,
            "visibility": 4,
            "type_id": "simple",
            "created_at": "2017-07-28 08:42:29",
            "updated_at": "2017-10-30 05:37:47",
            "weight": 1,
            "extension_attributes": [],
            "product_links": [
                {
                    "sku": "51G097",
                    "link_type": "related",
                    "linked_product_sku": "51G053",
                    "linked_product_type": "simple",
                    "position": 1,
                    "extension_attributes": []
                },
                {
                    "sku": "51G097",
                    "link_type": "related",
                    "linked_product_sku": "59G063",
                    "linked_product_type": "simple",
                    "position": 2,
                    "extension_attributes": []
                },
                {
                    "sku": "51G097",
                    "link_type": "related",
                    "linked_product_sku": "59G086",
                    "linked_product_type": "simple",
                    "position": 3,
                    "extension_attributes": []
                },
                {
                    "sku": "51G097",
                    "link_type": "related",
                    "linked_product_sku": "59GP001",
                    "linked_product_type": "simple",
                    "position": 4,
                    "extension_attributes": []
                },
                {
                    "sku": "51G097",
                    "link_type": "related",
                    "linked_product_sku": "59GP004",
                    "linked_product_type": "simple",
                    "position": 5,
                    "extension_attributes": []
                },
                {
                    "sku": "51G097",
                    "link_type": "upsell",
                    "linked_product_sku": "52G682",
                    "linked_product_type": "simple",
                    "position": 1,
                    "extension_attributes": []
                },
                {
                    "sku": "51G097",
                    "link_type": "upsell",
                    "linked_product_sku": "58G145",
                    "linked_product_type": "simple",
                    "position": 2,
                    "extension_attributes": []
                },
                {
                    "sku": "51G097",
                    "link_type": "upsell",
                    "linked_product_sku": "58G150",
                    "linked_product_type": "simple",
                    "position": 3,
                    "extension_attributes": []
                },
                {
                    "sku": "51G097",
                    "link_type": "upsell",
                    "linked_product_sku": "58G486",
                    "linked_product_type": "simple",
                    "position": 4,
                    "extension_attributes": []
                },
                {
                    "sku": "51G097",
                    "link_type": "upsell",
                    "linked_product_sku": "58G490",
                    "linked_product_type": "simple",
                    "position": 5,
                    "extension_attributes": []
                },
                {
                    "sku": "51G097",
                    "link_type": "upsell",
                    "linked_product_sku": "58G605",
                    "linked_product_type": "simple",
                    "position": 6,
                    "extension_attributes": []
                },
                {
                    "sku": "51G097",
                    "link_type": "upsell",
                    "linked_product_sku": "58G903",
                    "linked_product_type": "simple",
                    "position": 7,
                    "extension_attributes": []
                }
            ],
            "tier_prices": [],
            "custom_attributes": [
                {
                    "attribute_code": "description",
                    "value": "<p>Verto 1150 W Angle Grinder is a Sturdy and Powerful Tool with Cutting Disc Diameter 125 Mm, Designed for Cutting and Grinding of Materials Like Steel, Cast Iron. It has Sturdy, Lengthened and Resistant to Damages Body and 1150 W Efficient Motor Suitable for Doing Most of Workshop Tasks. Body Shape Allows to Firmly Grip The Grinder During Operation. Maximum Rotary Speed 10500 Rpm. Tool is Delivered with Steel Disc Guard, Special Key and Additional Handle. Accordance with European Safety Standards is Confirmed with Ce Certificate. Verto Brand Offers Power Tool and Accessories Assortment for All Diy Enthusiasts.</p>"
                },
                {
                    "attribute_code": "short_description",
                    "value": "<p style=\"text-align: justify;\"><span>Verto 1150 W Angle Grinder is a Sturdy and Powerful Tool with Cutting Disc Diameter 125 Mm, Designed for Cutting and Grinding of Materials Like Steel, Cast Iron. It has Sturdy, Lengthened and Resistant to Damages Body and 1150 W Efficient Motor Suitable for Doing Most of Workshop Tasks. Body Shape Allows to Firmly Grip The Grinder During Operation. Maximum Rotary Speed 10500 Rpm.</span></p>"
                },
                {
                    "attribute_code": "manufacturer",
                    "value": "344"
                },
                {
                    "attribute_code": "image",
                    "value": "/1/5/153047_dcg414n.jpg"
                },
                {
                    "attribute_code": "small_image",
                    "value": "/1/5/153047_dcg414n.jpg"
                },
                {
                    "attribute_code": "thumbnail",
                    "value": "/1/5/153047_dcg414n.jpg"
                },
                {
                    "attribute_code": "news_from_date",
                    "value": "2017-11-02 00:00:00"
                },
                {
                    "attribute_code": "news_to_date",
                    "value": "2018-11-03 00:00:00"
                },
                {
                    "attribute_code": "options_container",
                    "value": "container2"
                },
                {
                    "attribute_code": "required_options",
                    "value": "0"
                },
                {
                    "attribute_code": "has_options",
                    "value": "0"
                },
                {
                    "attribute_code": "url_key",
                    "value": "51g097"
                },
                {
                    "attribute_code": "msrp_display_actual_price_type",
                    "value": "0"
                },
                {
                    "attribute_code": "tax_class_id",
                    "value": "2"
                },
                {
                    "attribute_code": "gift_message_available",
                    "value": "2"
                },
                {
                    "attribute_code": "standards_met",
                    "value": "European Safety Standards;CE Certified"
                },
                {
                    "attribute_code": "includes",
                    "value": "Steel Disc Guard;Special Key;Additional Handle"
                },
                {
                    "attribute_code": "mfr_part_no",
                    "value": "51G097"
                },
                {
                    "attribute_code": "brand",
                    "value": "4"
                },
                {
                    "attribute_code": "grsns_product_type",
                    "value": "25"
                },
                {
                    "attribute_code": "grsns_voltage",
                    "value": "59"
                },
                {
                    "attribute_code": "frequency",
                    "value": "70"
                },
                {
                    "attribute_code": "power_rating",
                    "value": "101"
                },
                {
                    "attribute_code": "dimension",
                    "value": "182"
                },
                {
                    "attribute_code": "grsns_weight",
                    "value": "2.66 kg"
                },
                {
                    "attribute_code": "maximum_speed",
                    "value": "10500 Min⁻¹"
                },
                {
                    "attribute_code": "spindle_thread_size",
                    "value": "M14"
                },
                {
                    "attribute_code": "cutting_disc_size",
                    "value": "125 x 22.2 mm"
                },
                {
                    "attribute_code": "application",
                    "value": "Workshop Tasks"
                }
            ]
        },
        {
            "id": 43,
            "sku": "51G098",
            "name": "VERTO Angle Grinder 230 V 3000 to 10500 Min⁻¹ Speed",
            "attribute_set_id": 37,
            "price": 0,
            "status": 1,
            "visibility": 1,
            "type_id": "simple",
            "created_at": "2017-07-28 08:42:29",
            "updated_at": "2017-10-30 05:37:47",
            "weight": 1,
            "extension_attributes": [],
            "product_links": [],
            "tier_prices": [],
            "custom_attributes": [
                {
                    "attribute_code": "description",
                    "value": "<p>Verto 1050 W Angle Grinder with Speed Adjustment in Range 3000–10 500 Rpm. It is a  Sturdy and Powerful Tool with Cutting Disc Diameter 125 Mm, Designed for Cutting and Grinding of Materials Like Steel, Cast Iron. It has Sturdy, Lengthened and Resistant to Damages Body and 1050 W Efficient Motor Suitable for Doing Most of Workshop Tasks. Ergonomic Handle Shape Ensures Firm and Comfortable Grip of The Grinder During Operation. Maximum Rotary Speed 10500 Rpm. Tool is Delivered with Steel Disc Guard, Special Key and Additional Handle. Accordance with European Safety Standards is Confirmed with Ce Certificate. Verto Brand Offers Power Tool and Accessories Assortment for All Diy Enthusiasts.</p>"
                },
                {
                    "attribute_code": "short_description",
                    "value": "Angle Grinder 1050W, Disc 125x22.2 mm"
                },
                {
                    "attribute_code": "manufacturer",
                    "value": "344"
                },
                {
                    "attribute_code": "image",
                    "value": "/5/1/51g098.png"
                },
                {
                    "attribute_code": "small_image",
                    "value": "/5/1/51g098.png"
                },
                {
                    "attribute_code": "thumbnail",
                    "value": "/5/1/51g098.png"
                },
                {
                    "attribute_code": "options_container",
                    "value": "container2"
                },
                {
                    "attribute_code": "required_options",
                    "value": "0"
                },
                {
                    "attribute_code": "has_options",
                    "value": "0"
                },
                {
                    "attribute_code": "url_key",
                    "value": "51g098"
                },
                {
                    "attribute_code": "msrp_display_actual_price_type",
                    "value": "0"
                },
                {
                    "attribute_code": "tax_class_id",
                    "value": "2"
                },
                {
                    "attribute_code": "gift_message_available",
                    "value": "2"
                },
                {
                    "attribute_code": "standards_met",
                    "value": "European Safety Standards;CE Certified"
                },
                {
                    "attribute_code": "includes",
                    "value": "Steel Disc Guard;Special Key;Additional Handle"
                },
                {
                    "attribute_code": "mfr_part_no",
                    "value": "51G098"
                },
                {
                    "attribute_code": "brand",
                    "value": "4"
                },
                {
                    "attribute_code": "grsns_product_type",
                    "value": "25"
                },
                {
                    "attribute_code": "grsns_voltage",
                    "value": "59"
                },
                {
                    "attribute_code": "frequency",
                    "value": "70"
                },
                {
                    "attribute_code": "power_rating",
                    "value": "91"
                },
                {
                    "attribute_code": "dimension",
                    "value": "180"
                },
                {
                    "attribute_code": "grsns_weight",
                    "value": "2.3 kg"
                },
                {
                    "attribute_code": "maximum_speed",
                    "value": "3000 to 10500 Min⁻¹"
                },
                {
                    "attribute_code": "spindle_thread_size",
                    "value": "M14"
                },
                {
                    "attribute_code": "cutting_disc_size",
                    "value": "125 x 22.2 mm"
                },
                {
                    "attribute_code": "application",
                    "value": "Workshop Tasks"
                }
            ]
        },
        {
            "id": 44,
            "sku": "51G203",
            "name": "VERTO Angle Grinder 230 V 6500 Min⁻¹ Speed",
            "attribute_set_id": 37,
            "price": 0,
            "status": 1,
            "visibility": 1,
            "type_id": "simple",
            "created_at": "2017-07-28 08:42:29",
            "updated_at": "2017-10-30 05:37:47",
            "weight": 1,
            "extension_attributes": [],
            "product_links": [],
            "tier_prices": [],
            "custom_attributes": [
                {
                    "attribute_code": "description",
                    "value": "<p>Verto 2000 W Angle Grinder is a  Sturdy and Powerful Tool with Cutting Disc Diameter 230 Mm, Designed for Cutting and Grinding Materials with Various Structures and Hardness. It has Robust Casing with Rotary Rear Handle. The Handle Allows 3 Position Settings for Greater Comfort, and Ergonomic Handle Shape Provides Firm and Comfortable Grip of The Grinder During Operation. Powerful 2000 W Motor Allows to Carry on with More Demanding Renovation and Construction Works. The Grinder Features Soft Start System and Maximum Speed is 6500 Rpm. Tool is Delivered with Steel Disc Guard, Special Key and Additional Handle. Compliance with European Safety Standards is Confirmed with Ce Certificate. Verto Brand Offers Power Tool and Accessories Assortment for All Diy Enthusiasts.</p>"
                },
                {
                    "attribute_code": "short_description",
                    "value": "Angle Grinder 2000W, Speed 6,500 min⁻¹, Disc 230 mm."
                },
                {
                    "attribute_code": "manufacturer",
                    "value": "344"
                },
                {
                    "attribute_code": "image",
                    "value": "/5/1/51g203.png"
                },
                {
                    "attribute_code": "small_image",
                    "value": "/5/1/51g203.png"
                },
                {
                    "attribute_code": "thumbnail",
                    "value": "/5/1/51g203.png"
                },
                {
                    "attribute_code": "options_container",
                    "value": "container2"
                },
                {
                    "attribute_code": "required_options",
                    "value": "0"
                },
                {
                    "attribute_code": "has_options",
                    "value": "0"
                },
                {
                    "attribute_code": "url_key",
                    "value": "51g203"
                },
                {
                    "attribute_code": "msrp_display_actual_price_type",
                    "value": "0"
                },
                {
                    "attribute_code": "tax_class_id",
                    "value": "2"
                },
                {
                    "attribute_code": "gift_message_available",
                    "value": "2"
                },
                {
                    "attribute_code": "standards_met",
                    "value": "European Safety Standards;CE Certified"
                },
                {
                    "attribute_code": "includes",
                    "value": "Steel Disc Guard;Special Key;Additional Handle"
                },
                {
                    "attribute_code": "mfr_part_no",
                    "value": "51G203"
                },
                {
                    "attribute_code": "brand",
                    "value": "4"
                },
                {
                    "attribute_code": "grsns_product_type",
                    "value": "25"
                },
                {
                    "attribute_code": "grsns_voltage",
                    "value": "59"
                },
                {
                    "attribute_code": "frequency",
                    "value": "70"
                },
                {
                    "attribute_code": "power_rating",
                    "value": "76"
                },
                {
                    "attribute_code": "dimension",
                    "value": "183"
                },
                {
                    "attribute_code": "grsns_weight",
                    "value": "4.5 kg"
                },
                {
                    "attribute_code": "maximum_speed",
                    "value": "6500 Min⁻¹"
                },
                {
                    "attribute_code": "spindle_thread_size",
                    "value": "M14"
                },
                {
                    "attribute_code": "cutting_disc_size",
                    "value": "230 mm"
                },
                {
                    "attribute_code": "application",
                    "value": "Renovation Works;Construction Works"
                }
            ]
        },
        {
            "id": 138,
            "sku": "59G063",
            "name": "GRAPHITE Angle Grinder 230 V ac 12000 Min⁻¹ Speed",
            "attribute_set_id": 37,
            "price": 0,
            "status": 1,
            "visibility": 4,
            "type_id": "simple",
            "created_at": "2017-07-28 08:42:33",
            "updated_at": "2017-10-30 05:37:57",
            "weight": 1,
            "extension_attributes": [],
            "product_links": [],
            "tier_prices": [],
            "custom_attributes": [
                {
                    "attribute_code": "description",
                    "value": "<p>High End Graphite Angle Grinder with 750 W Motor, Designed for Cutting, Grinding and Polishing Materials with Various Structures and Hardness. Maximum Head Rotary Speed is 12000 Rpm. Grinding Wheel Diameter 115 Mm. Thanks to Ergonomic Shape (very Slim Casing) and Precise Balance The Tool Provides High Comfort At Work – Even During One Hand Operation. The Angle Grinder Design Allows for Convenient Adjustment of Wheel Side Shield Angle. for Safety Reasons, The Grinder is Equipped with Two Step Button That Prevents Accidental Start of The Tool and Spindle Lock Button That Does Not Protrude From The Tool Body. Proper Location of Ventilation Holes Protects Against Motor Overheating. It is Possible to Fix Side Handle in Two Positions. The Angle Grinder Also Features Long, Elastic Power Cord Coated with Strong Rubber. Compliance with European Standards is Confirmed with Ce Certificate.</p>"
                },
                {
                    "attribute_code": "short_description",
                    "value": "Angle Grinder"
                },
                {
                    "attribute_code": "manufacturer",
                    "value": "342"
                },
                {
                    "attribute_code": "image",
                    "value": "/5/9/59g063.png"
                },
                {
                    "attribute_code": "small_image",
                    "value": "/5/9/59g063.png"
                },
                {
                    "attribute_code": "thumbnail",
                    "value": "/5/9/59g063.png"
                },
                {
                    "attribute_code": "news_from_date",
                    "value": "2017-11-02 00:00:00"
                },
                {
                    "attribute_code": "news_to_date",
                    "value": "2018-11-03 00:00:00"
                },
                {
                    "attribute_code": "options_container",
                    "value": "container2"
                },
                {
                    "attribute_code": "required_options",
                    "value": "0"
                },
                {
                    "attribute_code": "has_options",
                    "value": "0"
                },
                {
                    "attribute_code": "url_key",
                    "value": "59g063"
                },
                {
                    "attribute_code": "msrp_display_actual_price_type",
                    "value": "0"
                },
                {
                    "attribute_code": "tax_class_id",
                    "value": "2"
                },
                {
                    "attribute_code": "gift_message_available",
                    "value": "2"
                },
                {
                    "attribute_code": "warranty",
                    "value": "2 yr"
                },
                {
                    "attribute_code": "includes",
                    "value": "Grinding wheel guard;Socket spanner;Additional handle"
                },
                {
                    "attribute_code": "mfr_part_no",
                    "value": "59G063"
                },
                {
                    "attribute_code": "brand",
                    "value": "5"
                },
                {
                    "attribute_code": "grsns_product_type",
                    "value": "25"
                },
                {
                    "attribute_code": "grsns_voltage",
                    "value": "60"
                },
                {
                    "attribute_code": "frequency",
                    "value": "70"
                },
                {
                    "attribute_code": "power_rating",
                    "value": "95"
                },
                {
                    "attribute_code": "dimension",
                    "value": "179"
                },
                {
                    "attribute_code": "grsns_weight",
                    "value": "1.9 kg"
                },
                {
                    "attribute_code": "maximum_speed",
                    "value": "12000 Min⁻¹"
                },
                {
                    "attribute_code": "spindle_thread_size",
                    "value": "M14"
                },
                {
                    "attribute_code": "cutting_disc_size",
                    "value": "115 x 22.2 mm"
                },
                {
                    "attribute_code": "application",
                    "value": "Cutting;Grinding;Polishing"
                }
            ]
        },
        {
            "id": 140,
            "sku": "59G086",
            "name": "GRAPHITE Angle Grinder 230 V ac 11000 Min⁻¹ Speed",
            "attribute_set_id": 37,
            "price": 0,
            "status": 1,
            "visibility": 4,
            "type_id": "simple",
            "created_at": "2017-07-28 08:42:33",
            "updated_at": "2017-10-30 05:37:57",
            "weight": 1,
            "extension_attributes": [],
            "product_links": [],
            "tier_prices": [],
            "custom_attributes": [
                {
                    "attribute_code": "description",
                    "value": "<p>High End Graphite Angle Grinder (ref. No. 59g086) with 860 W Motor, Designed for Cutting, Grinding and Polishing Materials with Various Structures and Hardness. Grinding Wheel Diameter 125 Mm. The Tool with Its Ergonomic Shape and Precise Balance Provides High Work Comfort. It is Possible to Fix Side Handle in Two Positions. for Safety Reasons, The Grinder is Equipped with Two Step Button with Lock Against Accidental Start of The Tool and Spindle Lock Button That Does Not Protrude From The Tool Body. Proper Location of Ventilation Holes Protects Against Motor Overheating. Maximum Head Rotary Speed is 11000 Rpm. Compliance with European Standards is Confirmed with Ce Certificate.</p><ul><li>Ergonomic Shape, Solid Construction and Precisely Balanced</li><li>Safe Two-Stage Switch Prevents Accidental Activation</li><li>Adjustable Disc Shield Ensures Safety</li></ul>"
                },
                {
                    "attribute_code": "short_description",
                    "value": "Angle Grinder"
                },
                {
                    "attribute_code": "manufacturer",
                    "value": "342"
                },
                {
                    "attribute_code": "image",
                    "value": "/5/9/59g086.png"
                },
                {
                    "attribute_code": "small_image",
                    "value": "/5/9/59g086.png"
                },
                {
                    "attribute_code": "thumbnail",
                    "value": "/5/9/59g086.png"
                },
                {
                    "attribute_code": "news_from_date",
                    "value": "2017-11-02 00:00:00"
                },
                {
                    "attribute_code": "news_to_date",
                    "value": "2018-11-03 00:00:00"
                },
                {
                    "attribute_code": "options_container",
                    "value": "container2"
                },
                {
                    "attribute_code": "required_options",
                    "value": "0"
                },
                {
                    "attribute_code": "has_options",
                    "value": "0"
                },
                {
                    "attribute_code": "url_key",
                    "value": "59g086"
                },
                {
                    "attribute_code": "msrp_display_actual_price_type",
                    "value": "0"
                },
                {
                    "attribute_code": "tax_class_id",
                    "value": "2"
                },
                {
                    "attribute_code": "gift_message_available",
                    "value": "2"
                },
                {
                    "attribute_code": "standards_met",
                    "value": "European Safety Standards;CE Certified"
                },
                {
                    "attribute_code": "warranty",
                    "value": "2 yr"
                },
                {
                    "attribute_code": "includes",
                    "value": "Grinding wheel guard;Socket spanner;Additional handle"
                },
                {
                    "attribute_code": "mfr_part_no",
                    "value": "59G086"
                },
                {
                    "attribute_code": "brand",
                    "value": "5"
                },
                {
                    "attribute_code": "grsns_product_type",
                    "value": "25"
                },
                {
                    "attribute_code": "grsns_voltage",
                    "value": "60"
                },
                {
                    "attribute_code": "frequency",
                    "value": "70"
                },
                {
                    "attribute_code": "power_rating",
                    "value": "103"
                },
                {
                    "attribute_code": "dimension",
                    "value": "176"
                },
                {
                    "attribute_code": "grsns_weight",
                    "value": "2.1 kg"
                },
                {
                    "attribute_code": "maximum_speed",
                    "value": "11000 Min⁻¹"
                },
                {
                    "attribute_code": "spindle_thread_size",
                    "value": "M14"
                },
                {
                    "attribute_code": "cutting_disc_size",
                    "value": "125 x 22.2 mm"
                },
                {
                    "attribute_code": "application",
                    "value": "Cutting;Grinding;Polishing"
                }
            ]
        },
        {
            "id": 141,
            "sku": "59G087",
            "name": "GRAPHITE Angle Grinder 230 V ac 12000 Min⁻¹ Speed",
            "attribute_set_id": 37,
            "price": 0,
            "status": 1,
            "visibility": 1,
            "type_id": "simple",
            "created_at": "2017-07-28 08:42:33",
            "updated_at": "2017-10-30 05:37:57",
            "weight": 1,
            "extension_attributes": [],
            "product_links": [],
            "tier_prices": [],
            "custom_attributes": [
                {
                    "attribute_code": "description",
                    "value": "<p>High End Graphite Angle Grinder with 900 W Motor, Designed for Cutting, Grinding and Polishing Materials with Various Structures and Hardness. Maximum Head Rotary Speed is 12000 Rpm. Grinding Wheel Diameter 125 Mm. Thanks to Ergonomic Shape (very Slim Casing) and Precise Balance The Tool Provides High Comfort At Work – Even During One Hand Operation. The Angle Grinder Design Allows for Convenient Adjustment of Wheel Side Shield Angle. for Safety Reasons, The Grinder is Equipped with Two Step Button That Prevents Accidental Start of The Tool and Spindle Lock Button That Does Not Protrude From The Tool Body. Proper Location of Ventilation Holes Protects Against Motor Overheating. It is Possible to Fix Side Handle in Two Positions. The Angle Grinder Also Features Long, Elastic Power Cord Coated with Strong Rubber. Compliance with European Standards is Confirmed with Ce Certificate.</p>"
                },
                {
                    "attribute_code": "short_description",
                    "value": "Angle Grinder"
                },
                {
                    "attribute_code": "manufacturer",
                    "value": "342"
                },
                {
                    "attribute_code": "image",
                    "value": "/5/9/59g087.png"
                },
                {
                    "attribute_code": "small_image",
                    "value": "/5/9/59g087.png"
                },
                {
                    "attribute_code": "thumbnail",
                    "value": "/5/9/59g087.png"
                },
                {
                    "attribute_code": "options_container",
                    "value": "container2"
                },
                {
                    "attribute_code": "required_options",
                    "value": "0"
                },
                {
                    "attribute_code": "has_options",
                    "value": "0"
                },
                {
                    "attribute_code": "url_key",
                    "value": "59g087"
                },
                {
                    "attribute_code": "msrp_display_actual_price_type",
                    "value": "0"
                },
                {
                    "attribute_code": "tax_class_id",
                    "value": "2"
                },
                {
                    "attribute_code": "gift_message_available",
                    "value": "2"
                },
                {
                    "attribute_code": "standards_met",
                    "value": "European Safety Standards;CE Certified"
                },
                {
                    "attribute_code": "warranty",
                    "value": "2 yr"
                },
                {
                    "attribute_code": "includes",
                    "value": "Grinding wheel guard;Socket spanner;Additional handle"
                },
                {
                    "attribute_code": "mfr_part_no",
                    "value": "59G087"
                },
                {
                    "attribute_code": "brand",
                    "value": "5"
                },
                {
                    "attribute_code": "grsns_product_type",
                    "value": "25"
                },
                {
                    "attribute_code": "grsns_voltage",
                    "value": "60"
                },
                {
                    "attribute_code": "frequency",
                    "value": "70"
                },
                {
                    "attribute_code": "power_rating",
                    "value": "90"
                },
                {
                    "attribute_code": "dimension",
                    "value": "179"
                },
                {
                    "attribute_code": "grsns_weight",
                    "value": "2.05 kg"
                },
                {
                    "attribute_code": "maximum_speed",
                    "value": "12000 Min⁻¹"
                },
                {
                    "attribute_code": "spindle_thread_size",
                    "value": "M14"
                },
                {
                    "attribute_code": "cutting_disc_size",
                    "value": "125 x 22.2 mm"
                },
                {
                    "attribute_code": "application",
                    "value": "Cutting;Grinding;Polishing"
                }
            ]
        },
        {
            "id": 142,
            "sku": "59G110",
            "name": "GRAPHITE Angle Grinder 230 V ac 11000 Min⁻¹ Speed",
            "attribute_set_id": 37,
            "price": 0,
            "status": 1,
            "visibility": 1,
            "type_id": "simple",
            "created_at": "2017-07-28 08:42:33",
            "updated_at": "2017-10-30 05:37:57",
            "weight": 1,
            "extension_attributes": [],
            "product_links": [],
            "tier_prices": [],
            "custom_attributes": [
                {
                    "attribute_code": "description",
                    "value": "<p>High End Graphite Angle Grinder with 1100 W Motor. Grinder Wheel Diameter is 125 Mm. The Tool with Its Ergonomic Shape and Precise Balance Provides High Work Comfort. It is Possible to Fix Side Handle in Two Positions. for Safety Reasons, The Grinder is Equipped with Two-Step Switch with Lock Against Accidental Start of The Tool and Spindle Lock Button with Protection Against Unintentional Pressing. Proper Layout of Ventilation Holes Provide Efficient Motor Cooling. Maximum Head Rotary Speed is 11000 Rpm. Compliance with European Standards is Confirmed with Ce Certificate.</p>"
                },
                {
                    "attribute_code": "short_description",
                    "value": "Angle Grinder"
                },
                {
                    "attribute_code": "manufacturer",
                    "value": "342"
                },
                {
                    "attribute_code": "image",
                    "value": "/5/9/59g110.png"
                },
                {
                    "attribute_code": "small_image",
                    "value": "/5/9/59g110.png"
                },
                {
                    "attribute_code": "thumbnail",
                    "value": "/5/9/59g110.png"
                },
                {
                    "attribute_code": "options_container",
                    "value": "container2"
                },
                {
                    "attribute_code": "required_options",
                    "value": "0"
                },
                {
                    "attribute_code": "has_options",
                    "value": "0"
                },
                {
                    "attribute_code": "url_key",
                    "value": "59g110"
                },
                {
                    "attribute_code": "msrp_display_actual_price_type",
                    "value": "0"
                },
                {
                    "attribute_code": "tax_class_id",
                    "value": "2"
                },
                {
                    "attribute_code": "gift_message_available",
                    "value": "2"
                },
                {
                    "attribute_code": "standards_met",
                    "value": "European Safety Standards;CE Certified"
                },
                {
                    "attribute_code": "warranty",
                    "value": "2 yr"
                },
                {
                    "attribute_code": "includes",
                    "value": "Grinding wheel guard;Socket spanner;Additional handle"
                },
                {
                    "attribute_code": "mfr_part_no",
                    "value": "59G110"
                },
                {
                    "attribute_code": "brand",
                    "value": "5"
                },
                {
                    "attribute_code": "grsns_product_type",
                    "value": "25"
                },
                {
                    "attribute_code": "grsns_voltage",
                    "value": "60"
                },
                {
                    "attribute_code": "frequency",
                    "value": "70"
                },
                {
                    "attribute_code": "power_rating",
                    "value": "98"
                },
                {
                    "attribute_code": "dimension",
                    "value": "176"
                },
                {
                    "attribute_code": "grsns_weight",
                    "value": "2.4 kg"
                },
                {
                    "attribute_code": "maximum_speed",
                    "value": "11000 Min⁻¹"
                },
                {
                    "attribute_code": "spindle_thread_size",
                    "value": "M14"
                },
                {
                    "attribute_code": "cutting_disc_size",
                    "value": "125 x 22.2 mm"
                }
            ]
        },
        {
            "id": 143,
            "sku": "59G186",
            "name": "GRAPHITE Angle Grinder 230 V ac 3000 to 11000 Min⁻¹ Speed",
            "attribute_set_id": 37,
            "price": 0,
            "status": 1,
            "visibility": 1,
            "type_id": "simple",
            "created_at": "2017-07-28 08:42:33",
            "updated_at": "2017-10-30 05:37:58",
            "weight": 1,
            "extension_attributes": [],
            "product_links": [],
            "tier_prices": [],
            "custom_attributes": [
                {
                    "attribute_code": "description",
                    "value": "<p>The Professional Angle Grinder Graphite (ref. No. 59g186), with a  860 W Motor, is Intended for Cutting, Grinding, and Polishing Materials of Different Structure and Hardness. Another Advantage of The Grinder is The Possibility to Adjust Its Rotational Speed in The Range From 3,000 to 11,000 Rpm. This Function is Particularly Useful for Polishing Various Materials. The Grinder's Disk has a  Diameter Equal to 125 Mm. Thanks to Its Ergonomic Shape and Its Accurate Balancing, The Grinder Ensures High Comfort of Use. It is Possible to Fix The Side Handle in Two Positions. for Safety's Sake, The Grinder is Equipped with a  Two-Step Push Button with a  Block That Prevents Accidental Activation and a  Spindle Block Button That Does Not Protrude From The Housing. Proper Location of Ventilation Slots Prevents Motor Overheating. The Grinder is Covered with a  24-Month Warranty.</p><ul><li>Ergonomic Shape, Solid Construction and Precisely Balanced</li><li>Aluminium Alloy Housing With Optimal Placement of Ventilation Holes</li><li>Variable Speed Control</li></ul>"
                },
                {
                    "attribute_code": "short_description",
                    "value": "Angle Grinder"
                },
                {
                    "attribute_code": "manufacturer",
                    "value": "342"
                },
                {
                    "attribute_code": "image",
                    "value": "/5/9/59g186.png"
                },
                {
                    "attribute_code": "small_image",
                    "value": "/5/9/59g186.png"
                },
                {
                    "attribute_code": "thumbnail",
                    "value": "/5/9/59g186.png"
                },
                {
                    "attribute_code": "options_container",
                    "value": "container2"
                },
                {
                    "attribute_code": "required_options",
                    "value": "0"
                },
                {
                    "attribute_code": "has_options",
                    "value": "0"
                },
                {
                    "attribute_code": "url_key",
                    "value": "59g186"
                },
                {
                    "attribute_code": "msrp_display_actual_price_type",
                    "value": "0"
                },
                {
                    "attribute_code": "tax_class_id",
                    "value": "2"
                },
                {
                    "attribute_code": "gift_message_available",
                    "value": "2"
                },
                {
                    "attribute_code": "standards_met",
                    "value": "European Safety Standards;CE Certified"
                },
                {
                    "attribute_code": "warranty",
                    "value": "2 yr"
                },
                {
                    "attribute_code": "includes",
                    "value": "Additional Handle;Disc Shield;Special Key;Cardboard"
                },
                {
                    "attribute_code": "mfr_part_no",
                    "value": "59G186"
                },
                {
                    "attribute_code": "brand",
                    "value": "5"
                },
                {
                    "attribute_code": "grsns_product_type",
                    "value": "25"
                },
                {
                    "attribute_code": "grsns_voltage",
                    "value": "60"
                },
                {
                    "attribute_code": "frequency",
                    "value": "70"
                },
                {
                    "attribute_code": "power_rating",
                    "value": "103"
                },
                {
                    "attribute_code": "dimension",
                    "value": "176"
                },
                {
                    "attribute_code": "grsns_weight",
                    "value": "5.7 kg"
                },
                {
                    "attribute_code": "maximum_speed",
                    "value": "3000 to 11000 Min⁻¹"
                },
                {
                    "attribute_code": "spindle_thread_size",
                    "value": "M14"
                },
                {
                    "attribute_code": "cutting_disc_size",
                    "value": "125 x 22.2 mm"
                },
                {
                    "attribute_code": "application",
                    "value": "Cutting;Grinding;Polishing"
                }
            ]
        },
        {
            "id": 144,
            "sku": "59G206",
            "name": "GRAPHITE Angle Grinder 230 V ac 6000 Min⁻¹ Speed",
            "attribute_set_id": 37,
            "price": 0,
            "status": 1,
            "visibility": 1,
            "type_id": "simple",
            "created_at": "2017-07-28 08:42:33",
            "updated_at": "2017-10-30 05:37:58",
            "weight": 1,
            "extension_attributes": [],
            "product_links": [],
            "tier_prices": [],
            "custom_attributes": [
                {
                    "attribute_code": "description",
                    "value": "<p>High End Graphite Angle Grinder (ref. No. 59g206) with 2400 W High Power Motor, Designed for Cutting, Grinding and Polishing Materials with Various Structures and Hardness. Grinding Wheel Diameter 230 Mm. The Tool with Its Ergonomic Shape and Precise Balance Provides High Work Comfort. The Main Handle with Anti Slip Coating and Additional Handle with Three Position Fixing Guarantee Work Comfort for Right and Left Handed Persons. for Safety Reasons, The Grinder is Equipped with Two Step Button That Prevents Accidental Start of The Tool and Spindle Lock Button That Does Not Protrude From The Tool Body. Proper Location of Ventilation Holes Protects Against Motor Overheating. Gear Casing is Made of Aluminium Alloy That Perfectly Transfers Heat and Strengthens The Design. Maximum Head Rotary Speed is 6000 Rpm. The Tool Allows The User for Individual Replacement of Carbon Brushes From The Outside. The Angle Grinder Also Features Long, Elastic Power Cord Coated with Strong Rubber. Compliance with European Standards is Confirmed with Ce Certificate.</p><ul><li>Rotary Main Handle for The Right</li><li>And Left-Handed</li><li>Safe Two-Stage Switch Prevents Accidental Activation</li><li>Aluminium Alloy Housing</li></ul>"
                },
                {
                    "attribute_code": "short_description",
                    "value": "Angle Grinder"
                },
                {
                    "attribute_code": "manufacturer",
                    "value": "342"
                },
                {
                    "attribute_code": "image",
                    "value": "/5/9/59g206.png"
                },
                {
                    "attribute_code": "small_image",
                    "value": "/5/9/59g206.png"
                },
                {
                    "attribute_code": "thumbnail",
                    "value": "/5/9/59g206.png"
                },
                {
                    "attribute_code": "options_container",
                    "value": "container2"
                },
                {
                    "attribute_code": "required_options",
                    "value": "0"
                },
                {
                    "attribute_code": "has_options",
                    "value": "0"
                },
                {
                    "attribute_code": "url_key",
                    "value": "59g206"
                },
                {
                    "attribute_code": "msrp_display_actual_price_type",
                    "value": "0"
                },
                {
                    "attribute_code": "tax_class_id",
                    "value": "2"
                },
                {
                    "attribute_code": "gift_message_available",
                    "value": "2"
                },
                {
                    "attribute_code": "standards_met",
                    "value": "European Safety Standards;CE Certified"
                },
                {
                    "attribute_code": "warranty",
                    "value": "2 yr"
                },
                {
                    "attribute_code": "includes",
                    "value": "Additional Handle;Disc Shield;Special Key;Cardboard"
                },
                {
                    "attribute_code": "mfr_part_no",
                    "value": "59G206"
                },
                {
                    "attribute_code": "brand",
                    "value": "5"
                },
                {
                    "attribute_code": "grsns_product_type",
                    "value": "25"
                },
                {
                    "attribute_code": "grsns_voltage",
                    "value": "60"
                },
                {
                    "attribute_code": "frequency",
                    "value": "70"
                },
                {
                    "attribute_code": "power_rating",
                    "value": "102"
                },
                {
                    "attribute_code": "dimension",
                    "value": "185"
                },
                {
                    "attribute_code": "grsns_weight",
                    "value": "5.7 kg"
                },
                {
                    "attribute_code": "maximum_speed",
                    "value": "6000 Min⁻¹"
                },
                {
                    "attribute_code": "spindle_thread_size",
                    "value": "M14"
                },
                {
                    "attribute_code": "cutting_disc_size",
                    "value": "230 x 22.2 mm"
                },
                {
                    "attribute_code": "application",
                    "value": "Cutting;Grinding;Polishing"
                }
            ]
        },
        {
            "id": 168,
            "sku": "59GP001",
            "name": "GRAPHITE PRO Angle Grinder 3 yr Warranty ",
            "attribute_set_id": 37,
            "price": 0,
            "status": 1,
            "visibility": 4,
            "type_id": "simple",
            "created_at": "2017-07-28 08:42:33",
            "updated_at": "2017-10-30 05:38:00",
            "weight": 1,
            "extension_attributes": [],
            "product_links": [],
            "tier_prices": [],
            "custom_attributes": [
                {
                    "attribute_code": "short_description",
                    "value": "GRAPHITE PRO Angle Grinder"
                },
                {
                    "attribute_code": "manufacturer",
                    "value": "343"
                },
                {
                    "attribute_code": "image",
                    "value": "/5/9/59gp001.png"
                },
                {
                    "attribute_code": "small_image",
                    "value": "/5/9/59gp001.png"
                },
                {
                    "attribute_code": "thumbnail",
                    "value": "/5/9/59gp001.png"
                },
                {
                    "attribute_code": "news_from_date",
                    "value": "2017-11-03 00:00:00"
                },
                {
                    "attribute_code": "news_to_date",
                    "value": "2018-11-03 00:00:00"
                },
                {
                    "attribute_code": "options_container",
                    "value": "container2"
                },
                {
                    "attribute_code": "required_options",
                    "value": "0"
                },
                {
                    "attribute_code": "has_options",
                    "value": "0"
                },
                {
                    "attribute_code": "url_key",
                    "value": "59gp001"
                },
                {
                    "attribute_code": "msrp_display_actual_price_type",
                    "value": "0"
                },
                {
                    "attribute_code": "tax_class_id",
                    "value": "2"
                },
                {
                    "attribute_code": "gift_message_available",
                    "value": "2"
                },
                {
                    "attribute_code": "warranty",
                    "value": "3 yr"
                },
                {
                    "attribute_code": "mfr_part_no",
                    "value": "59GP001"
                },
                {
                    "attribute_code": "brand",
                    "value": "6"
                },
                {
                    "attribute_code": "grsns_product_type",
                    "value": "25"
                }
            ]
        },
        {
            "id": 169,
            "sku": "59GP002",
            "name": "GRAPHITE PRO Angle Grinder 230 V 11000 Min⁻¹ Speed",
            "attribute_set_id": 37,
            "price": 0,
            "status": 1,
            "visibility": 1,
            "type_id": "simple",
            "created_at": "2017-07-28 08:42:33",
            "updated_at": "2017-10-30 05:38:00",
            "weight": 1,
            "extension_attributes": [],
            "product_links": [],
            "tier_prices": [],
            "custom_attributes": [
                {
                    "attribute_code": "description",
                    "value": "<ul><li>Ergonomic Design, Robust Construction and Precise Balance</li><li>Toolless Disc Replacement</li><li>Safe Two Stage Switch Button</li><li>Toolless Change of Disc Shield Position</li><li>Two-Position Side Handle Mounting</li></ul>"
                },
                {
                    "attribute_code": "short_description",
                    "value": "Angle Grinder"
                },
                {
                    "attribute_code": "manufacturer",
                    "value": "343"
                },
                {
                    "attribute_code": "image",
                    "value": "/5/9/59gp002.png"
                },
                {
                    "attribute_code": "small_image",
                    "value": "/5/9/59gp002.png"
                },
                {
                    "attribute_code": "thumbnail",
                    "value": "/5/9/59gp002.png"
                },
                {
                    "attribute_code": "options_container",
                    "value": "container2"
                },
                {
                    "attribute_code": "required_options",
                    "value": "0"
                },
                {
                    "attribute_code": "has_options",
                    "value": "0"
                },
                {
                    "attribute_code": "url_key",
                    "value": "59gp002"
                },
                {
                    "attribute_code": "msrp_display_actual_price_type",
                    "value": "0"
                },
                {
                    "attribute_code": "tax_class_id",
                    "value": "2"
                },
                {
                    "attribute_code": "gift_message_available",
                    "value": "2"
                },
                {
                    "attribute_code": "warranty",
                    "value": "3 yr"
                },
                {
                    "attribute_code": "includes",
                    "value": "(3) Metal Cutting Disc;Concrete Cutting Disc"
                },
                {
                    "attribute_code": "mfr_part_no",
                    "value": "59GP002"
                },
                {
                    "attribute_code": "brand",
                    "value": "6"
                },
                {
                    "attribute_code": "grsns_product_type",
                    "value": "25"
                },
                {
                    "attribute_code": "grsns_voltage",
                    "value": "59"
                },
                {
                    "attribute_code": "frequency",
                    "value": "70"
                },
                {
                    "attribute_code": "power_rating",
                    "value": "97"
                },
                {
                    "attribute_code": "dimension",
                    "value": "175"
                },
                {
                    "attribute_code": "grsns_weight",
                    "value": "2.1 kg"
                },
                {
                    "attribute_code": "maximum_speed",
                    "value": "11000 Min⁻¹"
                },
                {
                    "attribute_code": "spindle_thread_size",
                    "value": "M14"
                },
                {
                    "attribute_code": "cutting_disc_size",
                    "value": "125 x 22.2 mm"
                },
                {
                    "attribute_code": "application",
                    "value": "Cutting Construction Materials;Cutting Steel Sections;Grinding Steel Structures;Processing Stone and Concrete Materials"
                }
            ]
        },
        {
            "id": 170,
            "sku": "59GP004",
            "name": "GRAPHITE PRO Angle Grinder 230 V 6500 obr./min Speed",
            "attribute_set_id": 37,
            "price": 0,
            "status": 1,
            "visibility": 4,
            "type_id": "simple",
            "created_at": "2017-07-28 08:42:33",
            "updated_at": "2017-10-30 05:38:00",
            "weight": 1,
            "extension_attributes": [],
            "product_links": [],
            "tier_prices": [],
            "custom_attributes": [
                {
                    "attribute_code": "description",
                    "value": "<ul><li>Toolless Change of Disc Shield Position</li><li>Toolless Disc Replacement </li><li>Safe Two Stage Switch Button</li><li>Rotary Main Handle for Easier Hold for Both Right- and Left-Handed</li><li>External Access To Carbon Brushes</li></ul>"
                },
                {
                    "attribute_code": "short_description",
                    "value": "Angle Grinder"
                },
                {
                    "attribute_code": "manufacturer",
                    "value": "343"
                },
                {
                    "attribute_code": "image",
                    "value": "/5/9/59gp004.png"
                },
                {
                    "attribute_code": "small_image",
                    "value": "/5/9/59gp004.png"
                },
                {
                    "attribute_code": "thumbnail",
                    "value": "/5/9/59gp004.png"
                },
                {
                    "attribute_code": "news_from_date",
                    "value": "2017-11-03 00:00:00"
                },
                {
                    "attribute_code": "news_to_date",
                    "value": "2018-11-03 00:00:00"
                },
                {
                    "attribute_code": "options_container",
                    "value": "container2"
                },
                {
                    "attribute_code": "required_options",
                    "value": "0"
                },
                {
                    "attribute_code": "has_options",
                    "value": "0"
                },
                {
                    "attribute_code": "url_key",
                    "value": "59gp004"
                },
                {
                    "attribute_code": "msrp_display_actual_price_type",
                    "value": "0"
                },
                {
                    "attribute_code": "tax_class_id",
                    "value": "2"
                },
                {
                    "attribute_code": "gift_message_available",
                    "value": "2"
                },
                {
                    "attribute_code": "warranty",
                    "value": "3 yr"
                },
                {
                    "attribute_code": "includes",
                    "value": "(2) Work Gloves"
                },
                {
                    "attribute_code": "mfr_part_no",
                    "value": "59GP004"
                },
                {
                    "attribute_code": "brand",
                    "value": "6"
                },
                {
                    "attribute_code": "grsns_product_type",
                    "value": "25"
                },
                {
                    "attribute_code": "grsns_voltage",
                    "value": "59"
                },
                {
                    "attribute_code": "frequency",
                    "value": "70"
                },
                {
                    "attribute_code": "power_rating",
                    "value": "102"
                },
                {
                    "attribute_code": "dimension",
                    "value": "184"
                },
                {
                    "attribute_code": "grsns_weight",
                    "value": "6 kg"
                },
                {
                    "attribute_code": "maximum_speed",
                    "value": "6500 obr./min"
                },
                {
                    "attribute_code": "spindle_thread_size",
                    "value": "M14"
                },
                {
                    "attribute_code": "cutting_disc_size",
                    "value": "230 x 22.2 mm"
                },
                {
                    "attribute_code": "application",
                    "value": "Making Chases and Grooves in Floors and Walls;Disassembly of Steel Structures;Cutting Bricks and Concrete Blocks;Cutting and Chamfering of Steel Plate"
                }
            ]
        },
        {
            "id": 225,
            "sku": "0226440_NEW",
            "name": "Metabo 4-1/2\" Angle Grinder, 11000 rpm",
            "attribute_set_id": 65,
            "price": 100,
            "status": 1,
            "visibility": 4,
            "type_id": "simple",
            "created_at": "2017-10-24 09:07:18",
            "updated_at": "2017-10-30 06:57:42",
            "weight": 1,
            "extension_attributes": [],
            "product_links": [],
            "tier_prices": [],
            "custom_attributes": [
                {
                    "attribute_code": "description",
                    "value": "<span style=\"font-size: small; font-family: verdana,geneva; color: #000000;\"><br><br>-Robust motor<br>-Paddle switch with dead man function: Safe to operate due to an ergonomically integrated switch<br>-Auto-stop carbon brushes to protect the motor</span>"
                },
                {
                    "attribute_code": "short_description",
                    "value": "4-1/2\" 7.2 Amp Non-Locking Paddle Switch METABO [REG] Angle Grinder"
                },
                {
                    "attribute_code": "manufacturer",
                    "value": "498"
                },
                {
                    "attribute_code": "image",
                    "value": "/0/2/0226440_5.jpg"
                },
                {
                    "attribute_code": "small_image",
                    "value": "/0/2/0226440_5.jpg"
                },
                {
                    "attribute_code": "thumbnail",
                    "value": "/0/2/0226440_5.jpg"
                },
                {
                    "attribute_code": "options_container",
                    "value": "container2"
                },
                {
                    "attribute_code": "required_options",
                    "value": "0"
                },
                {
                    "attribute_code": "has_options",
                    "value": "0"
                },
                {
                    "attribute_code": "url_key",
                    "value": "0226440_NEW"
                },
                {
                    "attribute_code": "msrp_display_actual_price_type",
                    "value": "0"
                },
                {
                    "attribute_code": "tax_class_id",
                    "value": "2"
                },
                {
                    "attribute_code": "gift_message_available",
                    "value": "2"
                },
                {
                    "attribute_code": "ki_amps",
                    "value": "7.2 A"
                },
                {
                    "attribute_code": "ki_arbor_size",
                    "value": "7/8\""
                },
                {
                    "attribute_code": "ki_hertz",
                    "value": "50/60"
                },
                {
                    "attribute_code": "ki_spindle_thread_size",
                    "value": "5/8\"-11"
                },
                {
                    "attribute_code": "ki_switch_type",
                    "value": "Paddle, Non-Locking"
                },
                {
                    "attribute_code": "ki_wheel_diameter",
                    "value": "4-1/2\""
                },
                {
                    "attribute_code": "nki_manufaturename",
                    "value": "483"
                },
                {
                    "attribute_code": "nki_speed",
                    "value": "395"
                },
                {
                    "attribute_code": "nki_voltage",
                    "value": "402"
                },
                {
                    "attribute_code": "nki_special_features",
                    "value": "492"
                }
            ]
        },
        {
            "id": 231,
            "sku": "2112234_NEW",
            "name": "Dewalt 9\" Angle Grinder, 6500 rpm",
            "attribute_set_id": 65,
            "price": 0,
            "status": 1,
            "visibility": 4,
            "type_id": "simple",
            "created_at": "2017-10-24 09:07:19",
            "updated_at": "2017-10-30 06:57:42",
            "weight": 1,
            "extension_attributes": [],
            "product_links": [],
            "tier_prices": [],
            "custom_attributes": [
                {
                    "attribute_code": "description",
                    "value": "<span style=\"font-size: small; font-family: verdana,geneva; color: #000000;\"><br><br>-High Power 4.7 HP (maximum motor HP) 6,500 rpm motor provides overload protection provides higher operating speeds under load<br>-Gear Case Grip for Pipeliners allows gear case to be gripped as a handle<br>-Dust Ejection System? increases brush life and protects the motor from damaging particles entering the air intake that would otherwise abrade the motor<br>-Anti Vibe Trigger Handle reduces user fatigue caused by vibration<br>-Light weight design (12.4 lbs) lessens user fatigue<br>-Automatic turn-off brushes shut down the tool when brushes need to be changed to avoid tool damage<br>-Low profile gearcase allows for work in tight areas<br>-6,500 rpm provides optimal material removal with 9\" grinding wheels<br>-Brush window allows for quick brush replacement<br>-Quick Change Guard allows user to quickly adjust guard to redirect sparks<br>-Soft grip trigger handle provides greater comfort and control<br>-Thick, \"S\" style cord takes the abuse of the jobsite and shop environments, providing durability and long life for the cord<br>-3 position side handle provides improved ergonomics for specific applications</span>"
                },
                {
                    "attribute_code": "short_description",
                    "value": "9\" 6,500 rpm 4.5HP DeWalt[REG] Angle Grinder with No Lock On"
                },
                {
                    "attribute_code": "manufacturer",
                    "value": "499"
                },
                {
                    "attribute_code": "image",
                    "value": "/2/1/2112234_5.jpg"
                },
                {
                    "attribute_code": "small_image",
                    "value": "/2/1/2112234_5.jpg"
                },
                {
                    "attribute_code": "thumbnail",
                    "value": "/2/1/2112234_5.jpg"
                },
                {
                    "attribute_code": "options_container",
                    "value": "container2"
                },
                {
                    "attribute_code": "required_options",
                    "value": "0"
                },
                {
                    "attribute_code": "has_options",
                    "value": "0"
                },
                {
                    "attribute_code": "url_key",
                    "value": "2112234-new"
                },
                {
                    "attribute_code": "msrp_display_actual_price_type",
                    "value": "0"
                },
                {
                    "attribute_code": "tax_class_id",
                    "value": "2"
                },
                {
                    "attribute_code": "gift_message_available",
                    "value": "2"
                },
                {
                    "attribute_code": "ki_amps",
                    "value": "15 A"
                },
                {
                    "attribute_code": "ki_arbor_size",
                    "value": "5/8\"-11"
                },
                {
                    "attribute_code": "ki_horsepower",
                    "value": "4.5"
                },
                {
                    "attribute_code": "ki_spindle_thread_size",
                    "value": "5/8\"-11"
                },
                {
                    "attribute_code": "ki_switch_type",
                    "value": "Trigger, Non-Locking"
                },
                {
                    "attribute_code": "ki_wattage",
                    "value": "3450 W"
                },
                {
                    "attribute_code": "ki_wheel_diameter",
                    "value": "9\""
                },
                {
                    "attribute_code": "nki_manufaturename",
                    "value": "484"
                },
                {
                    "attribute_code": "nki_speed",
                    "value": "400"
                },
                {
                    "attribute_code": "nki_contents",
                    "value": "487"
                },
                {
                    "attribute_code": "nki_style",
                    "value": "415"
                },
                {
                    "attribute_code": "nki_special_features",
                    "value": "494"
                },
                {
                    "attribute_code": "ki_radial_static_load_capacity",
                    "value": " "
                }
            ]
        },
        {
            "id": 232,
            "sku": "2112235_NEW",
            "name": "Dewalt 9\" Angle Grinder, 6500 rpm",
            "attribute_set_id": 65,
            "price": 0,
            "status": 1,
            "visibility": 4,
            "type_id": "simple",
            "created_at": "2017-10-24 09:07:19",
            "updated_at": "2017-10-30 06:57:42",
            "weight": 1,
            "extension_attributes": [],
            "product_links": [],
            "tier_prices": [],
            "custom_attributes": [
                {
                    "attribute_code": "description",
                    "value": "<span style=\"font-size: small; font-family: verdana,geneva; color: #000000;\"><br><br>-High power 4.7 HP (maximum motor HP) 6,500 rpm motor provides overload protection provides higher operating speeds under load   Dust Ejection System? increases brush life and protects the motor from damaging particles entering the air intake that would otherwise abrade the motor<br>-Anti Vibe Trigger Handle reduces user fatigue caused by vibration<br>-Light weight design (12.1 lbs) lessens user fatigue<br>-Automatic turn-off brushes shut down the tool when brushes need to be changed to avoid tool damage<br>-Low profile gearcase allows for work in tight areas<br>-6,500 rpm provides optimal material removal with 9\" grinding wheels<br>-Brush window allows for quick brush replacement<br>-Quick Change Guard allows user to quickly adjust guard to redirect sparks<br>-Soft grip trigger handle provides greater comfort and control<br>-Thick, \"S\" style cord takes the abuse of the jobsite and shop environments providing durability and long life for the cord set<br>-3 position side handle provides improved ergonomics for specific applications</span>"
                },
                {
                    "attribute_code": "short_description",
                    "value": "9\" 6,500 rpm 4.5HP DeWalt[REG] Angle Grinder"
                },
                {
                    "attribute_code": "manufacturer",
                    "value": "499"
                },
                {
                    "attribute_code": "image",
                    "value": "/2/1/2112235_5.jpg"
                },
                {
                    "attribute_code": "small_image",
                    "value": "/2/1/2112235_5.jpg"
                },
                {
                    "attribute_code": "thumbnail",
                    "value": "/2/1/2112235_5.jpg"
                },
                {
                    "attribute_code": "options_container",
                    "value": "container2"
                },
                {
                    "attribute_code": "required_options",
                    "value": "0"
                },
                {
                    "attribute_code": "has_options",
                    "value": "0"
                },
                {
                    "attribute_code": "url_key",
                    "value": "2112235-new"
                },
                {
                    "attribute_code": "msrp_display_actual_price_type",
                    "value": "0"
                },
                {
                    "attribute_code": "tax_class_id",
                    "value": "2"
                },
                {
                    "attribute_code": "gift_message_available",
                    "value": "2"
                },
                {
                    "attribute_code": "ki_amps",
                    "value": "15 A"
                },
                {
                    "attribute_code": "ki_arbor_size",
                    "value": "5/8\"-11"
                },
                {
                    "attribute_code": "ki_horsepower",
                    "value": "4.5"
                },
                {
                    "attribute_code": "ki_spindle_thread_size",
                    "value": "5/8\"-11"
                },
                {
                    "attribute_code": "ki_switch_type",
                    "value": "Trigger, Non-Locking"
                },
                {
                    "attribute_code": "ki_wattage",
                    "value": "3450 W"
                },
                {
                    "attribute_code": "ki_wheel_diameter",
                    "value": "9\""
                },
                {
                    "attribute_code": "nki_manufaturename",
                    "value": "484"
                },
                {
                    "attribute_code": "nki_style",
                    "value": "415"
                },
                {
                    "attribute_code": "nki_special_features",
                    "value": "494"
                }
            ]
        }
    ],
    "search_criteria": {
        "filter_groups": [
            {
                "filters": [
                    {
                        "field": "category_id",
                        "value": "260",
                        "condition_type": "eq"
                    }
                ]
            }
        ]
    },
    "total_count": 18
}